{
  "calle": "CAMINO LAS FLORES",
  "numero" : "6018",
  "oficinaN" : "101",
  "region" : "REGION METROPOLITANA DE SANTIAGO",
  "ciudad": "SANTIAGO",
  "comuna": "MAIPU",
  "telefono1": "225844138",
  "telefono2": "66583047"
}